…
``` r
print(file_summary)
```

    # A tibble: 2,657 × 3
       Folder              File                                      Species_Present
       <chr>               <chr>                                     <chr>          
     1 SwiftOne_2025-02-05 D:/BirdNET analysis BTE/BTE 01/Gravações… Amazonian Motm…
     2 SwiftOne_2025-02-05 D:/BirdNET analysis BTE/BTE 03/Gravações… Band-tailed Ma…
     3 SwiftOne_2025-02-05 D:/BirdNET analysis BTE/BTE 03/Gravações… Band-tailed Ma…
     4 SwiftOne_2025-02-05 D:/BirdNET analysis BTE/BTE 03/Gravações… Band-tailed Ma…
     5 SwiftOne_2025-02-05 D:/BirdNET analysis BTE/BTE 03/Gravações… Amazonian Motm…
     6 SwiftOne_2025-02-05 D:/BirdNET analysis BTE/BTE 03/Gravações… Amazonian Motm…
     7 SwiftOne_2025-02-05 D:/BirdNET analysis BTE/BTE 03/Gravações… Amazonian Motm…
     8 SwiftOne_2025-02-05 D:/BirdNET analysis BTE/BTE 05/Gravações… Amazonian Motm…
     9 SwiftOne_2025-02-05 D:/BirdNET analysis BTE/BTE 06/Gravações… Amazonian Motm…
    10 SwiftOne_2025-02-06 D:/BirdNET analysis BTE/BTE 01/Gravações… Spot-winged Wo…
    # ℹ 2,647 more rows
